{
    "statusCode": 200,
    "status": "OK",
    "message": "스크랩 다건 조회 성공",
    "data": {
        "content" : [
          {
              "festivalId" : 7,
              "name" : "광주 비엔날레",
              "sido" : "광주",
              "sigungu" : "서구",
              "thumbnailImage" : "https://placehold.co/400.png",
              "startDate" : "2024-08-20",
              "endDate" : "2024-08-25"
            },
            {
              "festivalId" : 8, 
              "name" : "안동 탈춤 축제",
              "sido" : "경북",
              "sigungu" : "안동시",
              "thumbnailImage" : "https://placehold.co/400.png",
              "startDate" : "2024-09-30",
              "endDate" : "2024-10-05"
            },
            {
              "festivalId" : 9, 
              "name" : "대구 컬러풀 페스티벌",
              "sido" : "대구",
              "sigungu" : "중구",
              "thumbnailImage" : "https://placehold.co/400.png",
              "startDate" : "2024-10-15",
              "endDate" : "2024-10-20"
            },
            {
              "festivalId" : 10, 
              "name" : "대전 엑스포",
              "sido" : "대전",
              "sigungu" : "유성구",
              "thumbnailImage" : "https://placehold.co/400.png",
              "startDate" : "2024-11-05",
              "endDate" : "2024-11-10"
            },
            {
              "festivalId" : 11, 
              "name" : "포항 해양 축제",
              "sido" : "경북",
              "sigungu" : "포항시",
              "thumbnailImage" : "https://placehold.co/400.png",
              "startDate" : "2024-07-15",
              "endDate" : "2024-07-20"
            },
            {
              "festivalId" : 12, 
              "name" : "울산 고래 축제",
              "sido" : "울산",
              "sigungu" : "남구",
              "thumbnailImage" : "https://placehold.co/400.png",
              "startDate" : "2024-06-01",
              "endDate" : "2024-06-05"
            }
          ],
         "offset": 12,
        "pageNumber": 1,
        "pageSize": 6,
        "totalElements": 43,
        "totalPages": 8
     }
  }
  